<svg width="59" height="59" viewBox="0 0 59 59" fill="none" xmlns="http://www.w3.org/2000/svg">
<g clip-path="url(#clip0_308_460)">
<path opacity="0.9" fill-rule="evenodd" clip-rule="evenodd" d="M29.998 58.0039C46.0154 58.0039 59 45.0193 59 29.002C59 12.9846 46.0154 0 29.998 0C13.9807 0 0.996094 12.9846 0.996094 29.002C0.996094 45.0193 13.9807 58.0039 29.998 58.0039ZM53.8569 29.002C53.8569 42.1789 43.175 52.8608 29.9981 52.8608C16.8212 52.8608 6.13923 42.1789 6.13923 29.002C6.13923 15.8251 16.8212 5.14314 29.9981 5.14314C43.175 5.14314 53.8569 15.8251 53.8569 29.002ZM54.8569 29.002C54.8569 42.7312 43.7272 53.8608 29.9981 53.8608C16.2689 53.8608 5.13923 42.7312 5.13923 29.002C5.13923 15.2728 16.2689 4.14314 29.9981 4.14314C43.7272 4.14314 54.8569 15.2728 54.8569 29.002Z" fill="#B81F33"/>
<path d="M29.0834 28.7586V39.3583H24.2007C23.6797 39.3583 23.1638 39.2593 22.6824 39.0669C22.2011 38.8745 21.7638 38.5926 21.3954 38.2372C21.027 37.8817 20.7348 37.4598 20.5354 36.9954C20.336 36.531 20.2334 36.0333 20.2334 35.5306V28.7586H29.0834ZM39.7645 28.7586V35.5306C39.7645 36.0333 39.6619 36.531 39.4625 36.9954C39.2632 37.4598 38.9709 37.8817 38.6025 38.2372C38.2341 38.5926 37.7968 38.8745 37.3155 39.0669C36.8341 39.2593 36.3182 39.3583 35.7973 39.3583H30.9145V28.7586H39.7645ZM33.0507 15.8035C33.7625 15.8034 34.4613 15.988 35.0738 16.3381C35.6862 16.6882 36.1897 17.1908 36.5315 17.7933C36.8733 18.3957 37.0408 19.0758 37.0164 19.7622C36.9921 20.4486 36.7767 21.1161 36.393 21.6945L39.4593 21.6922C40.3016 21.6922 40.9852 22.241 40.9852 22.9194V26.3537C40.9852 27.0321 40.3016 27.5809 39.4593 27.5809L30.9145 27.5797V21.6922H29.0834V27.5797L20.5386 27.5809C19.6963 27.5809 19.0127 27.0321 19.0127 26.3537V22.9194C19.0127 22.241 19.6963 21.6922 20.5386 21.6922L23.605 21.6945C23.0603 20.874 22.8605 19.8839 23.0464 18.9261C23.2322 17.9683 23.7897 17.115 24.6051 16.5401C25.4205 15.9651 26.4325 15.7119 27.4347 15.8319C28.437 15.952 29.354 16.4363 29.999 17.1862C30.3706 16.753 30.8369 16.4044 31.3645 16.1654C31.892 15.9264 32.4678 15.8028 33.0507 15.8035ZM26.9472 17.5701C26.3961 17.5703 25.8663 17.7761 25.4687 18.1444C25.0711 18.5127 24.8365 19.015 24.8138 19.5463C24.7911 20.0776 24.9821 20.5968 25.3469 20.9954C25.7118 21.394 26.2222 21.6411 26.7714 21.6851L26.9472 21.6922H29.0834V19.6311L29.0761 19.4616C29.032 18.9461 28.7886 18.4654 28.3942 18.115C27.9998 17.7646 27.4833 17.5701 26.9472 17.5701ZM33.0507 17.5701C32.4841 17.5701 31.9408 17.7873 31.5402 18.1738C31.1395 18.5603 30.9145 19.0845 30.9145 19.6311V21.6922H33.0507C33.6173 21.6922 34.1606 21.475 34.5612 21.0885C34.9618 20.702 35.1869 20.1778 35.1869 19.6311C35.1869 19.0845 34.9618 18.5603 34.5612 18.1738C34.1606 17.7873 33.6173 17.5701 33.0507 17.5701Z" fill="#F1EDE4"/>
</g>
<defs>
<clipPath id="clip0_308_460">
<rect width="59" height="59" fill="white"/>
</clipPath>
</defs>
</svg>
