<svg width="125" height="161" viewBox="0 0 125 161" fill="none" xmlns="http://www.w3.org/2000/svg">
<path d="M74.383 124.937C74.383 144.668 58.3881 160.663 38.6573 160.663C18.9266 160.663 2.93164 144.668 2.93164 124.937C2.93164 105.206 18.9266 89.2114 38.6573 89.2114C58.3881 89.2114 74.383 105.206 74.383 124.937Z" fill="#FCE5AF"/>
<path d="M124.937 62.4685C124.937 96.9689 96.9689 124.937 62.4685 124.937C27.9681 124.937 0 96.9689 0 62.4685C0 27.9681 27.9681 0 62.4685 0C96.9689 0 124.937 27.9681 124.937 62.4685Z" fill="#FCE5AF"/>
</svg>
