<svg width="12" height="12" viewBox="0 0 12 12" fill="none" xmlns="http://www.w3.org/2000/svg">
<path fill-rule="evenodd" clip-rule="evenodd" d="M7 5V0H5V5H0V7H5V12H7V7H12V5H7Z" fill="#222222"/>
</svg>
